lab3/part1/simulation/qsim/part1.msim.vcd
$comment
	File created using the following command:
		vcd file part1.msim.vcd -direction
$end
$date
	Mon Mar 02 22:52:28 2015
$end
$version
	ModelSim Version 10.1d
$end
$timescale
	1ps
$end
$scope module part1_vlg_vec_tst $end
$var reg 1 ! Clk $end
$var reg 1 " R $end
$var reg 1 # S $end
$var wire 1 $ Q $end
$var wire 1 % sampler $end
$scope module i1 $end
$var wire 1 & gnd $end
$var wire 1 ' vcc $end
$var wire 1 ( unknown $end
$var tri1 1 ) devclrn $end
$var tri1 1 * devpor $end
$var tri1 1 + devoe $end
$var wire 1 , Q~output_o $end
$var wire 1 - S~input_o $end
$var wire 1 . Clk~input_o $end
$var wire 1 / R~input_o $end
$var wire 1 0 comb~0_combout $end
$upscope $end
$upscope $end
$enddefinitions $end
#0
$dumpvars
0!
0"
1#
x$
x%
0&
1'
x(
1)
1*
1+
x,
1-
0.
0/
x0
$end
#10000
0#
0-
0%
#20000
1!
1"
1.
1/
1%
10
0,
0$
#30000
1#
0"
1-
0/
0%
00
1,
1$
#40000
0!
1"
0.
1/
1%
#50000
0#
0-
0%
#60000
1!
1#
1.
1-
1%
10
0,
0$
#80000
0!
0.
0%
#90000
0"
0/
1%
#100000
1!
1"
1.
1/
0%
#110000
0"
0/
1%
00
1,
1$
#120000
0!
0.
0%
#130000
0#
0-
1%
#140000
1!
1#
1.
1-
0%
#150000
1"
0#
1/
0-
1%
10
0,
0$
#160000
0!
1#
0.
1-
0%
#170000
0"
0/
1%
#180000
1!
0#
1.
0-
0%
#190000
1#
1-
1%
00
1,
1$
#200000
1"
0!
1/
0.
0%
#210000
0"
0/
1%
#220000
1!
1"
1.
1/
0%
10
0,
0$
#230000
0"
0/
1%
00
1,
1$
#240000
0!
0.
0%
#250000
0#
1"
0-
1/
1%
#260000
1!
1#
0"
1.
1-
0/
0%
#270000
0#
1"
0-
1/
1%
10
0,
0$
#280000
0!
0"
0.
0/
0%
#290000
1#
1-
1%
#300000
1!
0#
1.
0-
0%
#320000
0!
0.
1%
#340000
1"
1#
1!
1/
1-
1.
0%
#350000
0"
0/
1%
00
1,
1$
#360000
0!
0.
0%
#370000
0#
0-
1%
#380000
1"
1!
1/
1.
0%
10
0,
0$
#390000
0"
0/
1%
#400000
0!
0.
0%
#410000
1"
1/
1%
#420000
1!
1.
0%
#440000
0!
0.
1%
#450000
1#
1-
0%
#460000
1!
0#
1.
0-
1%
#470000
1#
1-
0%
#480000
0"
0!
0/
0.
1%
#490000
0#
1"
0-
1/
0%
#500000
1!
1.
1%
#510000
0"
0/
0%
#520000
1#
0!
1"
1-
0.
1/
1%
#530000
0#
0-
0%
#540000
1!
1#
1.
1-
1%
#550000
0"
0/
0%
00
1,
1$
#560000
0!
1"
0.
1/
1%
#580000
1!
0"
1.
0/
0%
#590000
1"
1/
1%
10
0,
0$
#600000
0#
0!
0"
0-
0.
0/
0%
#610000
1#
1-
1%
#620000
1!
1.
0%
00
1,
1$
#640000
1"
0!
1/
0.
1%
#650000
0"
0/
0%
#660000
1!
1.
1%
#670000
0#
1"
0-
1/
0%
10
0,
0$
#680000
0!
0.
1%
#690000
1#
1-
0%
#700000
1!
1.
1%
#710000
0"
0#
0/
0-
0%
#720000
0!
1"
1#
0.
1/
1-
1%
#740000
1!
0#
1.
0-
0%
#760000
0!
1#
0.
1-
1%
#770000
0#
0-
0%
#780000
1!
1.
1%
#790000
1#
1-
0%
#800000
0"
0!
0#
0/
0.
0-
1%
#820000
1!
1#
1.
1-
0%
00
1,
1$
#840000
0!
0#
0.
0-
1%
#850000
1"
1/
0%
#860000
1!
0"
1.
0/
1%
#870000
1#
1"
1-
1/
0%
10
0,
0$
#880000
0!
0#
0"
0.
0-
0/
1%
#890000
1#
1"
1-
1/
0%
#900000
1!
1.
1%
#910000
0#
0-
0%
#920000
0"
0!
1#
0/
0.
1-
1%
#930000
1"
1/
0%
#940000
1!
0#
1.
0-
1%
#950000
0"
0/
0%
#960000
0!
0.
1%
#980000
1"
1!
1/
1.
0%
#990000
1#
0"
1-
0/
1%
00
1,
1$
